pomazkin\controllers\PageController.class
pomazkin\classes\Car.class
pomazkin\controllers\FindedClientController.class
pomazkin\services\UserService.class
pomazkin\classes\Main.class
pomazkin\classes\User.class
pomazkin\services\CarService.class
